{
    "output":"{name}{d}",
    "requests":
        [
            {
                "name":"Request Test",
                "type":2,
                "url":"http://www.google.com",
                "params":
                        {
                        "param1":"343",
                        "param2":"343",
                        "param3":"343"
                        }

            },
            {
            "name":"Request Test",
            "type":2,
            "url":"http://www.google.com",
            "params":
                {
                    "param":"343"
                }
            },
            {
            "name":"RequestTest",
            "type":2,
            "url":"http://www.psdgraphics.com/file/water-droplet-icon.jpg",
            "download":0,
            "params":
                {
                    "param":"343"
                }
            }
        ]
}

